…
```r
sydneybeaches
```

```
## # A tibble: 3,690 × 8
##    BeachId Region                    Council Site  Longi…¹ Latit…² Date  Enter…³
##      <dbl> <chr>                     <chr>   <chr>   <dbl>   <dbl> <chr>   <dbl>
##  1      25 Sydney City Ocean Beaches Randwi… Clov…    151.   -33.9 02/0…      19
##  2      25 Sydney City Ocean Beaches Randwi… Clov…    151.   -33.9 06/0…       3
##  3      25 Sydney City Ocean Beaches Randwi… Clov…    151.   -33.9 12/0…       2
##  4      25 Sydney City Ocean Beaches Randwi… Clov…    151.   -33.9 18/0…      13
##  5      25 Sydney City Ocean Beaches Randwi… Clov…    151.   -33.9 30/0…       8
##  6      25 Sydney City Ocean Beaches Randwi… Clov…    151.   -33.9 05/0…       7
##  7      25 Sydney City Ocean Beaches Randwi… Clov…    151.   -33.9 11/0…      11
##  8      25 Sydney City Ocean Beaches Randwi… Clov…    151.   -33.9 23/0…      97
##  9      25 Sydney City Ocean Beaches Randwi… Clov…    151.   -33.9 07/0…       3
## 10      25 Sydney City Ocean Beaches Randwi… Clov…    151.   -33.9 25/0…       0
## # … with 3,680 more rows, and abbreviated variable names ¹​Longitude, ²​Latitude,
## #   ³​`Enterococci (cfu/100ml)`
```
…
3. We are only interested in the variables site, date, and enterococci_cfu_100ml. Make a new object focused on these variables only. Name the object `sydneybeaches_long`

```r
sydneybeaches_long <- sydneybeaches %>% 
  select("site","date","enterococci_cfu_100ml")
sydneybeaches_long
```

```
## # A tibble: 3,690 × 3
##    site           date       enterococci_cfu_100ml
##    <chr>          <chr>                      <dbl>
##  1 Clovelly Beach 02/01/2013                    19
##  2 Clovelly Beach 06/01/2013                     3
##  3 Clovelly Beach 12/01/2013                     2
##  4 Clovelly Beach 18/01/2013                    13
##  5 Clovelly Beach 30/01/2013                     8
##  6 Clovelly Beach 05/02/2013                     7
##  7 Clovelly Beach 11/02/2013                    11
##  8 Clovelly Beach 23/02/2013                    97
##  9 Clovelly Beach 07/03/2013                     3
## 10 Clovelly Beach 25/03/2013                     0
## # … with 3,680 more rows
```


4. Pivot the data such that the dates are column names and each beach only appears once. Name the object `sydneybeaches_wide`

```r
sydneybeaches_wide <- sydneybeaches_long %>% 
  pivot_wider(names_from = site,
              values_from = enterococci_cfu_100ml)
sydneybeaches_wide
```

```
## # A tibble: 344 × 12
##    date  Clove…¹ Cooge…² Gordo…³ Littl…⁴ Malab…⁵ Marou…⁶ South…⁷ South…⁸ Bondi…⁹
##    <chr>   <dbl>   <dbl>   <dbl>   <dbl>   <dbl>   <dbl>   <dbl>   <dbl>   <dbl>
##  1 02/0…      19      15      NA       9       2       1       1      12       3
##  2 06/0…       3       4      NA       3       4       1       0       2       1
##  3 12/0…       2      17      NA      72     390      20      33     110       2
##  4 18/0…      13      18      NA       1      15       2       2      13       1
##  5 30/0…       8      22      NA      44      13      11      13     100       6
##  6 05/0…       7       2      NA       7      13       0       0     630       5
##  7 11/0…      11     110      NA     150     140       4      30      79     600
##  8 23/0…      97     630      NA     330     390      60      92     570      67
##  9 07/0…       3      11      NA      31       6       1      13      69       1
## 10 25/0…       0      82       4     420      28      33      17      37       0
## # … with 334 more rows, 2 more variables: `Bronte Beach` <dbl>,
## #   `Tamarama Beach` <dbl>, and abbreviated variable names ¹​`Clovelly Beach`,
## #   ²​`Coogee Beach`, ³​`Gordons Bay (East)`, ⁴​`Little Bay Beach`,
## #   ⁵​`Malabar Beach`, ⁶​`Maroubra Beach`, ⁷​`South Maroubra Beach`,
## #   ⁸​`South Maroubra Rockpool`, ⁹​`Bondi Beach`
```


5. Pivot the data back so that the dates are data and not column names.

```r
sydneybeaches_long_again <- sydneybeaches_wide %>% 
  pivot_longer(cols = `Clovelly Beach`:`Tamarama Beach`,
               names_to = "beach",
               values_to = "bacteria_mL") %>% 
  arrange(beach)
sydneybeaches_long_again
```

```
## # A tibble: 3,784 × 3
##    date       beach       bacteria_mL
##    <chr>      <chr>             <dbl>
##  1 02/01/2013 Bondi Beach           3
##  2 06/01/2013 Bondi Beach           1
##  3 12/01/2013 Bondi Beach           2
##  4 18/01/2013 Bondi Beach           1
##  5 30/01/2013 Bondi Beach           6
##  6 05/02/2013 Bondi Beach           5
##  7 11/02/2013 Bondi Beach         600
##  8 23/02/2013 Bondi Beach          67
##  9 07/03/2013 Bondi Beach           1
## 10 25/03/2013 Bondi Beach           0
## # … with 3,774 more rows
```
…
