…
Problem 12. (4 points) Use the `ecosphere` data to perform one exploratory analysis of your choice. The analysis must have a minimum of three lines and two functions. You must also clearly state the question you are attempting to answer.

```r
#Which species (based on mean eggs per clutch and the age of sexual maturity) are K-selected? Which are R-selected?
ecosphere %>% 
  ##limiting variables to their names and the relevent data
  select(common_name,scientific_name,mean_eggs_per_clutch,mean_age_at_sexual_maturity) %>% 
  #creating a ratio for each species; the ratio is measured by comparing the
  mutate(reproduction_ratio = (mean_eggs_per_clutch/mean(mean_eggs_per_clutch))/(mean_age_at_sexual_maturity/mean(mean_age_at_sexual_maturity))) %>% 
  mutate(selection_type = ifelse(reproduction_ratio > 1, "r-selected", "K-selected"))
```

```
## # A tibble: 551 × 6
##    common_name                      scientific…¹ mean_…² mean_…³ repro…⁴ selec…⁵
##    <chr>                            <chr>          <dbl>   <dbl>   <dbl> <chr>  
##  1 "American Black Duck"            Anas rubrip…     9       1     3.17  r-sele…
##  2 "American Wigeon"                Anas americ…     7.5     1     2.64  r-sele…
##  3 "Barrow's Goldeneye"             Bucephala i…    10.5     3     1.23  r-sele…
##  4 "Black Brant"                    Branta bern…     3.5     2.5   0.492 K-sele…
##  5 "Black Scoter"                   Melanitta a…     9.5     2     1.67  r-sele…
##  6 "Black-bellied Whistling-Duck"   Dendrocygna…    13.5     1     4.75  r-sele…
##  7 "Blue-winged Teal"               Anas discors    10       0.6   5.86  r-sele…
##  8 "Bufflehead"                     Bucephala a…     8.5     2     1.49  r-sele…
##  9 "Cackling and Canada Goose \xa0" Branta hutc…     5       1     1.76  r-sele…
## 10 "Canvasback"                     Aythya vali…     8       1     2.81  r-sele…
## # … with 541 more rows, and abbreviated variable names ¹​scientific_name,
## #   ²​mean_eggs_per_clutch, ³​mean_age_at_sexual_maturity, ⁴​reproduction_ratio,
## #   ⁵​selection_type
```
…
