…
```r
sleep <- replace(sleep, sleep < 0, NA) 
sleep
```

```
## # A tibble: 62 × 11
##    species       body …¹ brain…² slow …³ parad…⁴ total…⁵ maxim…⁶ gesta…⁷ preda…⁸
##    <chr>           <dbl>   <dbl>   <dbl>   <dbl>   <dbl>   <dbl>   <dbl>   <dbl>
##  1 African elep… 6.65e+3  5712      NA      NA       3.3    38.6     645       3
##  2 African gian… 1   e+0     6.6     6.3     2       8.3     4.5      42       3
##  3 Arctic Fox    3.38e+0    44.5    NA      NA      12.5    14        60       1
##  4 Arctic groun… 9.2 e-1     5.7    NA      NA      16.5    NA        25       5
##  5 Asian elepha… 2.55e+3  4603       2.1     1.8     3.9    69       624       3
##  6 Baboon        1.06e+1   180.      9.1     0.7     9.8    27       180       4
##  7 Big brown bat 2.3 e-2     0.3    15.8     3.9    19.7    19        35       1
##  8 Brazilian ta… 1.6 e+2   169       5.2     1       6.2    30.4     392       4
##  9 Cat           3.3 e+0    25.6    10.9     3.6    14.5    28        63       1
## 10 Chimpanzee    5.22e+1   440       8.3     1.4     9.7    50       230       1
## # … with 52 more rows, 2 more variables: `sleep exposure index (1-5)` <dbl>,
## #   `overall danger index (1-5)` <dbl>, and abbreviated variable names
## #   ¹​`body weight in kg`, ²​`brain weight in g`,
## #   ³​`slow wave ("nondreaming") sleep (hrs/day)`,
## #   ⁴​`paradoxical ("dreaming") sleep (hrs/day)`,
## #   ⁵​`total sleep (hrs/day)  (sum of slow wave and paradoxical sleep)`,
## #   ⁶​`maximum life span (years)`, ⁷​`gestation time (days)`, …
```
…
```
## [1] 15
```

7. We are interested in two groups; small and large mammals. Let's define small as less than or equal to 1kg body weight and large as greater than or equal to 200kg body weight. Make two new dataframes (large and small) based on these parameters.

```r
small <- sleep[(sleep$`body weight in kg` <= 1),]
large <- sleep[(sleep$`body weight in kg` >= 200),]
small
```

```
## # A tibble: 21 × 11
##    species       body …¹ brain…² slow …³ parad…⁴ total…⁵ maxim…⁶ gesta…⁷ preda…⁸
##    <chr>           <dbl>   <dbl>   <dbl>   <dbl>   <dbl>   <dbl>   <dbl>   <dbl>
##  1 African gian…   1         6.6     6.3     2       8.3     4.5      42       3
##  2 Arctic groun…   0.92      5.7    NA      NA      16.5    NA        25       5
##  3 Big brown bat   0.023     0.3    15.8     3.9    19.7    19        35       1
##  4 Chinchilla      0.425     6.4    11       1.5    12.5     7       112       5
##  5 Desert hedge…   0.55      2.4     7.6     2.7    10.3    NA        NA       2
##  6 Eastern Amer…   0.075     1.2     6.3     2.1     8.4     3.5      42       1
##  7 European hed…   0.785     3.5     6.6     4.1    10.7     6        42       2
##  8 Galago          0.2       5       9.5     1.2    10.7    10.4     120       2
##  9 Golden hamst…   0.12      1      11       3.4    14.4     3.9      16       3
## 10 Ground squir…   0.101     4      10.4     3.4    13.8     9        28       5
## # … with 11 more rows, 2 more variables: `sleep exposure index (1-5)` <dbl>,
## #   `overall danger index (1-5)` <dbl>, and abbreviated variable names
## #   ¹​`body weight in kg`, ²​`brain weight in g`,
## #   ³​`slow wave ("nondreaming") sleep (hrs/day)`,
## #   ⁴​`paradoxical ("dreaming") sleep (hrs/day)`,
## #   ⁵​`total sleep (hrs/day)  (sum of slow wave and paradoxical sleep)`,
## #   ⁶​`maximum life span (years)`, ⁷​`gestation time (days)`, …
```
…
