…
fisheries_tidy$catch <- as.numeric(fisheries_tidy$catch)

fisheries <- fisheries_tidy
```

3. How many countries are represented in the data? Provide a count and list their names.

```r
fisheries %>% 
  group_by(country) %>% 
  summarize(n_country=n())
```

```
## # A tibble: 203 × 2
##    country               n_country
##    <fct>                     <int>
##  1 "Saint Barth\xe9lemy"         6
##  2 "R\xe9union"                736
##  3 "C\xf4te d'Ivoire"         1859
##  4 "Cura\xe7ao"                 18
##  5 "Albania"                   934
##  6 "Algeria"                  1561
##  7 "American Samoa"            556
##  8 "Angola"                   2119
##  9 "Anguilla"                  129
## 10 "Antigua and Barbuda"       356
## # … with 193 more rows
```
…
```
## [1] 203
```

4. Refocus the data only to include country, isscaap_taxonomic_group, asfis_species_name, asfis_species_number, year, catch.

```r
fish <- fisheries %>% 
  select(country,isscaap_taxonomic_group,asfis_species_name,asfis_species_number,year,catch)
fish
```

```
## # A tibble: 376,771 × 6
##    country isscaap_taxonomic_group asfis_species_name asfis_specie…¹  year catch
##    <fct>   <chr>                   <chr>              <fct>          <dbl> <dbl>
##  1 Albania Sharks, rays, chimaeras Squatinidae        10903XXXXX      1995    NA
##  2 Albania Sharks, rays, chimaeras Squatinidae        10903XXXXX      1996    53
##  3 Albania Sharks, rays, chimaeras Squatinidae        10903XXXXX      1997    20
##  4 Albania Sharks, rays, chimaeras Squatinidae        10903XXXXX      1998    31
##  5 Albania Sharks, rays, chimaeras Squatinidae        10903XXXXX      1999    30
##  6 Albania Sharks, rays, chimaeras Squatinidae        10903XXXXX      2000    30
##  7 Albania Sharks, rays, chimaeras Squatinidae        10903XXXXX      2001    16
##  8 Albania Sharks, rays, chimaeras Squatinidae        10903XXXXX      2002    79
##  9 Albania Sharks, rays, chimaeras Squatinidae        10903XXXXX      2003     1
## 10 Albania Sharks, rays, chimaeras Squatinidae        10903XXXXX      2004     4
## # … with 376,761 more rows, and abbreviated variable name ¹​asfis_species_number
```
…
