…
```r
colleges <- colleges %>% 
  na_if("NA") %>%  
  rename("name"=INSTNM,"state"=STABBR,"tuition"=COSTT4_A,"grad_rate"=C150_4_POOLED,"percent_bio"=PCIP26,"percent_FTFT"=PFTFTUG1_EF) %>% 
  clean_names() %>% 
  arrange(name)
colleges
```

```
## # A tibble: 341 × 10
##    name        city  state zip   adm_r…¹ sat_avg perce…² tuition grad_…³ perce…⁴
##    <chr>       <chr> <chr> <chr>   <dbl>   <dbl>   <dbl>   <dbl>   <dbl>   <dbl>
##  1 Academy of… San … CA    94105  NA          NA  0        38000   0.370   0.343
##  2 Academy of… Oakl… CA    94612  NA          NA NA           NA  NA      NA    
##  3 Allan Hanc… Sant… CA    9345…  NA          NA  0.0069    9932  NA       0.398
##  4 Alliant In… San … CA    92131   0.857      NA  0        28258  NA      NA    
##  5 American A… Los … CA    90028   0.770      NA  0        51581  NA       0.920
##  6 American B… Berk… CA    9470…  NA          NA NA           NA  NA      NA    
##  7 American B… West… CA    91790  NA          NA  0           NA  NA       0.781
##  8 American C… Los … CA    90004  NA          NA  0           NA  NA       0.412
##  9 American C… San … CA    9410…  NA          NA  0        47827  NA      NA    
## 10 American F… Los … CA    9002…  NA          NA NA           NA  NA      NA    
## # … with 331 more rows, and abbreviated variable names ¹​adm_rate, ²​percent_bio,
## #   ³​grad_rate, ⁴​percent_ftft
```


2. Which cities in California have the highest number of colleges?

```r
colleges %>% 
  count(city) %>% 
  arrange(desc(n))
```

```
## # A tibble: 161 × 2
##    city              n
##    <chr>         <int>
##  1 Los Angeles      24
##  2 San Diego        18
##  3 San Francisco    15
##  4 Sacramento       10
##  5 Berkeley          9
##  6 Oakland           9
##  7 Claremont         7
##  8 Pasadena          6
##  9 Fresno            5
## 10 Irvine            5
## # … with 151 more rows
```
…
4. The column `COSTT4_A` is the annual cost of each institution. Which city has the highest average cost? Where is it located?

```r
colleges %>% 
  group_by(city) %>% 
  summarize(avg_tuition = mean(tuition)) %>% 
  arrange(desc(avg_tuition))
```

```
## # A tibble: 161 × 2
##    city                avg_tuition
##    <chr>                     <dbl>
##  1 Malibu                    66152
##  2 Valencia                  64686
##  3 Redlands                  61542
##  4 Moraga                    61095
##  5 Atherton                  56035
##  6 Thousand Oaks             54373
##  7 Rancho Palos Verdes       50758
##  8 La Verne                  50603
##  9 Belmont                   50415
## 10 La Mirada                 48857
## # … with 151 more rows
```
…
